<?xml version="1.0" encoding="UTF-8" standalone="no"?>
<!DOCTYPE svg PUBLIC "-//W3C//DTD SVG 1.1//EN" "http://www.w3.org/Graphics/SVG/1.1/DTD/svg11.dtd">
<svg width="100%" height="100%" viewBox="0 0 1400 392" version="1.1" xmlns="http://www.w3.org/2000/svg" xmlns:xlink="http://www.w3.org/1999/xlink" xml:space="preserve" xmlns:serif="http://www.serif.com/" style="fill-rule:evenodd;clip-rule:evenodd;stroke-linejoin:round;stroke-miterlimit:1.41421;">
    <g transform="matrix(1,0,0,1,-580,-524)">
        <g id="HAMYHORIZONTAL20171225" transform="matrix(1.18533,0,0,1.18533,-294.938,-3806.97)">
            <path d="M1919.24,3653.8L1919.24,3984.51L738.137,3984.51L738.137,3653.8L1919.24,3653.8ZM1021.6,3939.26L1021.6,3702.4L974.357,3702.4L974.357,3796.89L832.625,3796.89L832.625,3702.4L785.381,3701.42L785.381,3937.64L832.625,3938.62L832.625,3844.13L974.357,3844.13L974.357,3939.26L1021.6,3939.26ZM1588.53,3937.64L1588.53,3701.42L1517.66,3701.42L1469.71,3795.53L1423.18,3701.42L1352.31,3701.42L1352.31,3937.64L1399.55,3937.64L1399.55,3748.66L1446.8,3842.78L1494.04,3842.78L1541.29,3748.66L1541.29,3937.64L1588.53,3937.64ZM1872,3843.15L1872,3701.42L1824.75,3701.42L1824.75,3795.91L1683.02,3795.91L1683.02,3701.42L1635.77,3701.42L1635.77,3843.15L1730.26,3843.15L1730.26,3937.64L1777.51,3937.64L1777.51,3843.15L1872,3843.15ZM1305.07,3936.28L1305.07,3701.05L1068.85,3701.05L1068.85,3936.28L1116.09,3936.28L1116.09,3841.79L1257.82,3841.79L1257.82,3936.28L1305.07,3936.28ZM1116.09,3794.55L1257.82,3794.55L1257.82,3747.31L1116.09,3747.31L1116.09,3794.55Z" style="fill:rgb(191,62,56);"/>
        </g>
    </g>
</svg>
